<?xml version="1.0" encoding="utf-8"?>
<!-- Svg Vector Icons : http://www.onlinewebfonts.com/icon -->
<!DOCTYPE svg PUBLIC "-//W3C//DTD SVG 1.1//EN" "http://www.w3.org/Graphics/SVG/1.1/DTD/svg11.dtd">
<svg version="1.1" xmlns="http://www.w3.org/2000/svg" xmlns:xlink="http://www.w3.org/1999/xlink" x="0px" y="0px"
     viewBox="0 0 1000 1000" enable-background="new 0 0 1000 1000" xml:space="preserve">
<metadata> Svg Vector Icons : http://www.onlinewebfonts.com/icon </metadata>
    <g><g fill="white" transform="translate(0.000000,511.000000) scale(0.100000,-0.100000)"><path d="M7777.1,4994.8c-40.7-12-107.6-40.7-145.9-64.6c-143.5-95.7-5833.9-4446.6-5920-4527.9c-105.3-100.5-169.8-277.5-145.9-409c38.3-215.3-50.2-143.5,3107.1-2482.8C6315.7-3709.4,7700.6-4726,7746-4749.9c126.8-67,346.8-47.8,476,40.7c117.2,81.3,217.7,270.3,217.7,406.6c0,119.6-67,267.9-153.1,349.2c-35.9,33.5-1265.3,947.2-2734,2033.1C4081.6-834.3,2880.8,65,2883.2,77c0,19.1,2870.3,2210.1,4948.9,3779.2c531,399.5,574.1,454.5,554.9,705.6C8365.5,4863.2,8076.1,5068.9,7777.1,4994.8z"/></g></g>
</svg>